{
    "prepare_queue": {
        "installed": [],
        "uninstalled": []
    },
    "config_munge": {
        "files": {}
    },
    "installed_plugins": {
        "cordova-plugin-splashscreen": {},
        "cordova-plugin-statusbar": {},
        "cordova-plugin-dialogs": {},
        "cordova-plugin-inappbrowser": {},
        "cordova-plugin-geolocation": {},
        "cordova-plugin-device-orientation": {},
        "cordova-plugin-vibration": {},
        "intel.xdk.device": {},
        "cordova-plugin-device": {}
    },
    "dependent_plugins": {}
}