{
    "prepare_queue": {
        "installed": [],
        "uninstalled": []
    },
    "config_munge": {
        "files": {}
    },
    "installed_plugins": {
        "cordova-plugin-splashscreen": {
            "PACKAGE_NAME": "io.cordova.hellocordova"
        },
        "cordova-plugin-device": {
            "PACKAGE_NAME": "io.cordova.hellocordova"
        }
    },
    "dependent_plugins": {
        "cordova-plugin-device-orientation": {
            "PACKAGE_NAME": "io.cordova.hellocordova"
        },
        "cordova-plugin-dialogs": {
            "PACKAGE_NAME": "io.cordova.hellocordova"
        },
        "cordova-plugin-geolocation": {
            "PACKAGE_NAME": "io.cordova.hellocordova"
        },
        "cordova-plugin-inappbrowser": {
            "PACKAGE_NAME": "io.cordova.hellocordova"
        },
        "cordova-plugin-vibration": {
            "PACKAGE_NAME": "io.cordova.hellocordova"
        },
        "intel.xdk.device": {
            "PACKAGE_NAME": "io.cordova.hellocordova"
        },
        "cordova-plugin-statusbar": {
            "PACKAGE_NAME": "io.cordova.hellocordova"
        }
    }
}